{
  "$schema": "https://docs.renovatebot.com/renovate-schema.json",
  "extends": [
    "config:base"
  ],
  "includeForks": true,
  // Configure Renovate's ArgoCD manager, which is required to activate it
  "argocd": {
    "fileMatch": [
      "applications/templates/.+\\.yaml$"
    ]
  },
  "packageRules": [
    // Automatically merge minor updates of ArgoCD and the Prometheus stack
    {
      "description": "Automatically merge minor and patch-level updates",
      "matchUpdateTypes": [
        "minor",
        "patch",
        "digest"
      ],
      "matchPackageNames": [
        "argoproj/argo-cd",
        "kube-prometheus-stack"
      ],
      "automerge": true,
    },
  ],
  // Speed up the automatic merging process
  "platformAutomerge": true,
  // Fix default branch rebasing - always rebase still-open temporary branches, whenever its source branch has changed
  "rebaseWhen": "behind-base-branch",
  // Handle pulled dependency updates
  "rollbackPrs": true,
  // Improve overview of open PRs (caused by Renovate Bot)
  "dependencyDashboard": true,
  "dependencyDashboardAutoclose": true,
}
